week 2/dump.vcd
$date
	Thu Sep 16 21:20:14 2021
$end
$version
	Icarus Verilog
$end
$timescale
	1s
$end
$scope module tb $end
$var wire 4 ! o [3:0] $end
$var wire 1 " cout $end
$var reg 1 # cin $end
$var reg 1 $ clk $end
$var reg 4 % i0 [3:0] $end
$var reg 4 & i1 [3:0] $end
$var reg 1 ' reset $end
$var integer 32 ( i [31:0] $end
$scope module u0 $end
$var wire 4 ) a [3:0] $end
$var wire 4 * b [3:0] $end
$var wire 1 # ci $end
$var wire 4 + sum [3:0] $end
$var wire 1 " co $end
$var wire 3 , c [2:0] $end
$scope module f1 $end
$var wire 1 - a $end
$var wire 1 . b $end
$var wire 1 # cin $end
$var wire 1 / t $end
$var wire 1 0 sum $end
$var wire 1 1 s $end
$var wire 1 2 r $end
$var wire 1 3 q $end
$var wire 1 4 p $end
$var wire 1 5 cout $end
$scope module a0 $end
$var wire 1 - i0 $end
$var wire 1 . i1 $end
$var wire 1 3 o2 $end
$upscope $end
$scope module a1 $end
$var wire 1 - i0 $end
$var wire 1 # i1 $end
$var wire 1 2 o2 $end
$upscope $end
$scope module a2 $end
$var wire 1 . i0 $end
$var wire 1 # i1 $end
$var wire 1 1 o2 $end
$upscope $end
$scope module o0 $end
$var wire 1 3 i0 $end
$var wire 1 2 i1 $end
$var wire 1 / o3 $end
$upscope $end
$scope module o1 $end
$var wire 1 1 i0 $end
$var wire 1 / i1 $end
$var wire 1 5 o3 $end
$upscope $end
$scope module x0 $end
$var wire 1 - i0 $end
$var wire 1 . i1 $end
$var wire 1 4 o4 $end
$upscope $end
$scope module x1 $end
$var wire 1 4 i0 $end
$var wire 1 # i1 $end
$var wire 1 0 o4 $end
$upscope $end
$upscope $end
$scope module f2 $end
$var wire 1 6 a $end
$var wire 1 7 b $end
$var wire 1 8 cin $end
$var wire 1 9 t $end
$var wire 1 : sum $end
$var wire 1 ; s $end
$var wire 1 < r $end
$var wire 1 = q $end
$var wire 1 > p $end
$var wire 1 ? cout $end
$scope module a0 $end
$var wire 1 6 i0 $end
$var wire 1 7 i1 $end
$var wire 1 = o2 $end
$upscope $end
$scope module a1 $end
$var wire 1 6 i0 $end
$var wire 1 8 i1 $end
$var wire 1 < o2 $end
$upscope $end
$scope module a2 $end
$var wire 1 7 i0 $end
$var wire 1 8 i1 $end
$var wire 1 ; o2 $end
$upscope $end
$scope module o0 $end
$var wire 1 = i0 $end
$var wire 1 < i1 $end
$var wire 1 9 o3 $end
$upscope $end
$scope module o1 $end
$var wire 1 ; i0 $end
$var wire 1 9 i1 $end
$var wire 1 ? o3 $end
$upscope $end
$scope module x0 $end
$var wire 1 6 i0 $end
$var wire 1 7 i1 $end
$var wire 1 > o4 $end
$upscope $end
$scope module x1 $end
$var wire 1 > i0 $end
$var wire 1 8 i1 $end
$var wire 1 : o4 $end
$upscope $end
$upscope $end
$scope module f3 $end
$var wire 1 @ a $end
$var wire 1 A b $end
$var wire 1 B cin $end
$var wire 1 C t $end
$var wire 1 D sum $end
$var wire 1 E s $end
$var wire 1 F r $end
$var wire 1 G q $end
$var wire 1 H p $end
$var wire 1 I cout $end
$scope module a0 $end
$var wire 1 @ i0 $end
$var wire 1 A i1 $end
$var wire 1 G o2 $end
$upscope $end
$scope module a1 $end
$var wire 1 @ i0 $end
$var wire 1 B i1 $end
$var wire 1 F o2 $end
$upscope $end
$scope module a2 $end
$var wire 1 A i0 $end
$var wire 1 B i1 $end
$var wire 1 E o2 $end
$upscope $end
$scope module o0 $end
$var wire 1 G i0 $end
$var wire 1 F i1 $end
$var wire 1 C o3 $end
$upscope $end
$scope module o1 $end
$var wire 1 E i0 $end
$var wire 1 C i1 $end
$var wire 1 I o3 $end
$upscope $end
$scope module x0 $end
$var wire 1 @ i0 $end
$var wire 1 A i1 $end
$var wire 1 H o4 $end
$upscope $end
$scope module x1 $end
$var wire 1 H i0 $end
$var wire 1 B i1 $end
$var wire 1 D o4 $end
$upscope $end
$upscope $end
$scope module f4 $end
$var wire 1 J a $end
$var wire 1 K b $end
$var wire 1 L cin $end
$var wire 1 M t $end
$var wire 1 N sum $end
$var wire 1 O s $end
$var wire 1 P r $end
$var wire 1 Q q $end
$var wire 1 R p $end
$var wire 1 " cout $end
$scope module a0 $end
$var wire 1 J i0 $end
$var wire 1 K i1 $end
$var wire 1 Q o2 $end
$upscope $end
$scope module a1 $end
$var wire 1 J i0 $end
$var wire 1 L i1 $end
$var wire 1 P o2 $end
$upscope $end
$scope module a2 $end
$var wire 1 K i0 $end
$var wire 1 L i1 $end
$var wire 1 O o2 $end
$upscope $end
$scope module o0 $end
$var wire 1 Q i0 $end
$var wire 1 P i1 $end
$var wire 1 M o3 $end
$upscope $end
$scope module o1 $end
$var wire 1 O i0 $end
$var wire 1 M i1 $end
$var wire 1 " o3 $end
$upscope $end
$scope module x0 $end
$var wire 1 J i0 $end
$var wire 1 K i1 $end
$var wire 1 R o4 $end
$upscope $end
$scope module x1 $end
$var wire 1 R i0 $end
$var wire 1 L i1 $end
$var wire 1 N o4 $end
$upscope $end
$upscope $end
$upscope $end
$upscope $end
$enddefinitions $end
#0
$dumpvars
0R
0Q
0P
0O
0N
0M
0L
0K
0J
0I
0H
0G
0F
0E
0D
0C
0B
0A
0@
0?
0>
0=
0<
0;
0:
09
08
07
06
05
04
03
02
01
00
0/
0.
0-
b0 ,
b0 +
b0 *
b0 )
b0 (
1'
b0 &
b0 %
0$
0#
0"
b0 !
$end
#5
1$
#10
0$
#13
0'
#15
1$
#16
b1 !
b1 +
10
14
1.
b1 (
b1 &
b1 *
#20
0$
#25
1$
#26
1:
18
b1 ,
15
1/
b10 !
b10 +
00
13
04
1-
b10 (
b1 %
b1 )
#30
0$
#35
1$
#36
1N
1L
1I
1C
1F
1B
b111 ,
1?
19
0:
b1000 !
b1000 +
0D
1<
1>
1H
16
1@
b11 (
b111 %
b111 )
#40
0$
#45
1$
#46
0N
0L
0I
1D
0B
0?
1:
08
b0 ,
05
0/
b111 !
b111 +
10
09
0C
03
14
0<
0F
0;
0E
0-
06
0@
17
1A
b100 (
b0 %
b0 )
b111 &
b111 *
#50
0$
#55
1$
#56
1F
1E
1N
1B
1L
1?
1I
1<
1;
19
1C
1D
18
1=
0>
1G
0H
b111 ,
15
16
1@
11
b1110 !
b1110 +
00
b101 (
b110 %
b110 )
1#
#60
0$
#65
1$
#66
0L
b11 ,
0I
1/
10
0:
0C
0"
b1101 !
b1101 +
1N
13
12
04
0F
0=
0;
1>
0G
0E
0O
1R
1-
0@
07
0A
1K
b110 (
b11 %
b11 )
b1001 &
b1001 *
#70
0$
#75
1$
#76
1"
1M
1P
0N
1L
b111 ,
1I
1C
b1 !
b1 +
0D
1F
1H
1@
1J
0K
b111 (
b1111 %
b1111 )
b1 &
b1 *
#80
0$
#85
1$
#86
0"
0M
1N
1:
1D
0P
0R
1=
1;
0>
1G
1E
0H
0J
17
1A
02
01
b1110 !
b1110 +
00
b1000 (
b111 %
b111 )
b111 &
b111 *
0#
